task3/sigdelay.vcd
$version Generated by VerilatedVcd $end
$date Mon Oct 30 17:15:44 2023 $end
$timescale 1ps $end

 $scope module TOP $end
  $var wire  8 ' delayed_signal [7:0] $end
  $var wire  8 # mic_signal [7:0] $end
  $var wire  9 & offset [8:0] $end
  $var wire  1 % rd $end
  $var wire  1 $ wr $end
  $scope module sigdelay $end
   $var wire 32 - ADDRESS_WIDTH [31:0] $end
   $var wire 32 , DATA_WIDTH [31:0] $end
   $var wire  8 ' delayed_signal [7:0] $end
   $var wire  8 # mic_signal [7:0] $end
   $var wire  9 & offset [8:0] $end
   $var wire  1 % rd $end
   $var wire  1 $ wr $end
   $scope module address $end
    $var wire 32 - WIDTH [31:0] $end
    $var wire  1 ( clk $end
    $var wire  9 * count [8:0] $end
    $var wire  1 ) rst $end
   $upscope $end
   $scope module memory $end
    $var wire 32 - ADDRESS_WIDTH [31:0] $end
    $var wire 32 , DATA_WIDTH [31:0] $end
    $var wire  1 ( clk $end
    $var wire  8 # din [7:0] $end
    $var wire  8 ' dout [7:0] $end
    $var wire  9 + raddr [8:0] $end
    $var wire  1 % ren $end
    $var wire  9 * wraddr [8:0] $end
    $var wire  1 $ wren $end
   $upscope $end
  $upscope $end
 $upscope $end
$enddefinitions $end


#0
b00000000 #
1$
1%
b001000000 &
b00000000 '
1(
0)
b000000000 *
b111000000 +
b00000000000000000000000000001000 ,
b00000000000000000000000000001001 -
#1
0(
#2
b01101100 #
1(
b000000001 *
b111000001 +
#3
0(
#4
b01110010 #
1(
b000000010 *
b111000010 +
#5
0(
#6
b01110111 #
1(
b000000011 *
b111000011 +
#7
0(
#8
1(
b000000100 *
b111000100 +
#9
0(
#10
1(
b000000101 *
b111000101 +
#11
0(
#12
b01110101 #
1(
b000000110 *
b111000110 +
#13
0(
#14
b01101111 #
1(
b000000111 *
b111000111 +
#15
0(
#16
b01101101 #
1(
b000001000 *
b111001000 +
#17
0(
#18
b01101000 #
1(
b000001001 *
b111001001 +
#19
0(
#20
b01101010 #
1(
b000001010 *
b111001010 +
#21
0(
#22
b01101000 #
1(
b000001011 *
b111001011 +
#23
0(
#24
b01100111 #
1(
b000001100 *
b111001100 +
#25
0(
#26
b01100110 #
1(
b000001101 *
b111001101 +
#27
0(
#28
1(
b000001110 *
b111001110 +
#29
0(
#30
b01100111 #
1(
b000001111 *
b111001111 +
#31
0(
#32
b01101010 #
1(
b000010000 *
b111010000 +
#33
0(
#34
b01101000 #
1(
b000010001 *
b111010001 +
#35
0(
#36
b01101101 #
1(
b000010010 *
b111010010 +
#37
0(
#38
1(
b000010011 *
b111010011 +
#39
0(
#40
b01110001 #
1(
b000010100 *
b111010100 +
#41
0(
#42
b01110101 #
1(
b000010101 *
b111010101 +
#43
0(
#44
b01110100 #
1(
b000010110 *
b111010110 +
#45
0(
#46
1(
b000010111 *
b111010111 +
#47
0(
#48
b01110001 #
1(
b000011000 *
b111011000 +
#49
0(
#50
1(
b000011001 *
b111011001 +
#51
0(
#52
1(
b000011010 *
b111011010 +
#53
0(
#54
b01101101 #
1(
b000011011 *
b111011011 +
#55
0(
#56
b01101100 #
1(
b000011100 *
b111011100 +
#57
0(
#58
b01101011 #
1(
b000011101 *
b111011101 +
#59
0(
#60
b01101010 #
1(
b000011110 *
b111011110 +
#61
0(
#62
b01100111 #
1(
b000011111 *
b111011111 +
#63
0(
#64
1(
b000100000 *
b111100000 +
#65
0(
#66
b01101000 #
1(
b000100001 *
b111100001 +
#67
0(
#68
b01100011 #
1(
b000100010 *
b111100010 +
#69
0(
#70
b01100101 #
1(
b000100011 *
b111100011 +
#71
0(
#72
b01101001 #
1(
b000100100 *
b111100100 +
#73
0(
#74
1(
b000100101 *
b111100101 +
#75
0(
#76
1(
b000100110 *
b111100110 +
#77
0(
#78
b01101100 #
1(
b000100111 *
b111100111 +
#79
0(
#80
b01110011 #
1(
b000101000 *
b111101000 +
#81
0(
#82
b01110101 #
1(
b000101001 *
b111101001 +
#83
0(
#84
b01110110 #
1(
b000101010 *
b111101010 +
#85
0(
#86
1(
b000101011 *
b111101011 +
#87
0(
#88
b01111000 #
1(
b000101100 *
b111101100 +
#89
0(
#90
b01110101 #
1(
b000101101 *
b111101101 +
#91
0(
#92
b01110001 #
1(
b000101110 *
b111101110 +
#93
0(
#94
b01101111 #
1(
b000101111 *
b111101111 +
#95
0(
#96
1(
b000110000 *
b111110000 +
#97
0(
#98
b01101101 #
1(
b000110001 *
b111110001 +
#99
0(
#100
b01101000 #
1(
b000110010 *
b111110010 +
#101
0(
#102
b01100111 #
1(
b000110011 *
b111110011 +
#103
0(
#104
b01100110 #
1(
b000110100 *
b111110100 +
#105
0(
#106
b01101100 #
1(
b000110101 *
b111110101 +
#107
0(
#108
b01101001 #
1(
b000110110 *
b111110110 +
#109
0(
#110
b01101111 #
1(
b000110111 *
b111110111 +
#111
0(
#112
b01110100 #
1(
b000111000 *
b111111000 +
#113
0(
#114
b01110111 #
1(
b000111001 *
b111111001 +
#115
0(
#116
b01111010 #
1(
b000111010 *
b111111010 +
#117
0(
#118
b01111100 #
1(
b000111011 *
b111111011 +
#119
0(
#120
b01111011 #
1(
b000111100 *
b111111100 +
#121
0(
#122
b01111101 #
1(
b000111101 *
b111111101 +
#123
0(
#124
b01111011 #
1(
b000111110 *
b111111110 +
#125
0(
#126
b01111000 #
1(
b000111111 *
b111111111 +
#127
0(
#128
b01110100 #
1(
b001000000 *
b000000000 +
#129
0(
#130
1(
b001000001 *
b000000001 +
#131
0(
#132
b01110000 #
b01101100 '
1(
b001000010 *
b000000010 +
#133
0(
#134
b01101100 #
b01110010 '
1(
b001000011 *
b000000011 +
#135
0(
#136
b01110111 '
1(
b001000100 *
b000000100 +
#137
0(
#138
b01101010 #
1(
b001000101 *
b000000101 +
#139
0(
#140
b01101001 #
1(
b001000110 *
b000000110 +
#141
0(
#142
b01110101 '
1(
b001000111 *
b000000111 +
#143
0(
#144
b01100111 #
b01101111 '
1(
b001001000 *
b000001000 +
#145
0(
#146
b01100110 #
b01101101 '
1(
b001001001 *
b000001001 +
#147
0(
#148
b01101001 #
b01101000 '
1(
b001001010 *
b000001010 +
#149
0(
#150
b01101010 '
1(
b001001011 *
b000001011 +
#151
0(
#152
b01101100 #
b01101000 '
1(
b001001100 *
b000001100 +
#153
0(
#154
b01101101 #
b01100111 '
1(
b001001101 *
b000001101 +
#155
0(
#156
b01100110 '
1(
b001001110 *
b000001110 +
#157
0(
#158
b01101110 #
1(
b001001111 *
b000001111 +
#159
0(
#160
b01101111 #
b01100111 '
1(
b001010000 *
b000010000 +
#161
0(
#162
b01101010 '
1(
b001010001 *
b000010001 +
#163
0(
#164
b01101101 #
b01101000 '
1(
b001010010 *
b000010010 +
#165
0(
#166
b01101011 #
b01101101 '
1(
b001010011 *
b000010011 +
#167
0(
#168
b01101000 #
1(
b001010100 *
b000010100 +
#169
0(
#170
b01101010 #
b01110001 '
1(
b001010101 *
b000010101 +
#171
0(
#172
b01101011 #
b01110101 '
1(
b001010110 *
b000010110 +
#173
0(
#174
b01101010 #
b01110100 '
1(
b001010111 *
b000010111 +
#175
0(
#176
b01101001 #
1(
b001011000 *
b000011000 +
#177
0(
#178
b01101000 #
b01110001 '
1(
b001011001 *
b000011001 +
#179
0(
#180
b01100101 #
1(
b001011010 *
b000011010 +
#181
0(
#182
1(
b001011011 *
b000011011 +
#183
0(
#184
b01101101 '
1(
b001011100 *
b000011100 +
#185
0(
#186
b01100000 #
b01101100 '
1(
b001011101 *
b000011101 +
#187
0(
#188
b01100011 #
b01101011 '
1(
b001011110 *
b000011110 +
#189
0(
#190
b01100111 #
b01101010 '
1(
b001011111 *
b000011111 +
#191
0(
#192
b01101011 #
b01100111 '
1(
b001100000 *
b000100000 +
#193
0(
#194
b01101101 #
1(
b001100001 *
b000100001 +
#195
0(
#196
b01101110 #
b01101000 '
1(
b001100010 *
b000100010 +
#197
0(
#198
b01100011 '
1(
b001100011 *
b000100011 +
#199
0(
#200
b01110100 #
b01100101 '
1(
b001100100 *
b000100100 +
#201
0(
#202
b01101111 #
b01101001 '
1(
b001100101 *
b000100101 +
#203
0(
#204
b01110000 #
1(
b001100110 *
b000100110 +
#205
0(
#206
b01101111 #
1(
b001100111 *
b000100111 +
#207
0(
#208
b01101110 #
b01101100 '
1(
b001101000 *
b000101000 +
#209
0(
#210
b01110011 '
1(
b001101001 *
b000101001 +
#211
0(
#212
b01101011 #
b01110101 '
1(
b001101010 *
b000101010 +
#213
0(
#214
b01100110 #
b01110110 '
1(
b001101011 *
b000101011 +
#215
0(
#216
1(
b001101100 *
b000101100 +
#217
0(
#218
b01101101 #
b01111000 '
1(
b001101101 *
b000101101 +
#219
0(
#220
b01101010 #
b01110101 '
1(
b001101110 *
b000101110 +
#221
0(
#222
b01101111 #
b01110001 '
1(
b001101111 *
b000101111 +
#223
0(
#224
b01101111 '
1(
b001110000 *
b000110000 +
#225
0(
#226
b01110010 #
1(
b001110001 *
b000110001 +
#227
0(
#228
b01110110 #
b01101101 '
1(
b001110010 *
b000110010 +
#229
0(
#230
b01110010 #
b01101000 '
1(
b001110011 *
b000110011 +
#231
0(
#232
b01110000 #
b01100111 '
1(
b001110100 *
b000110100 +
#233
0(
#234
b01110100 #
b01100110 '
1(
b001110101 *
b000110101 +
#235
0(
#236
b01110110 #
b01101100 '
1(
b001110110 *
b000110110 +
#237
0(
#238
b01110100 #
b01101001 '
1(
b001110111 *
b000110111 +
#239
0(
#240
b01110001 #
b01101111 '
1(
b001111000 *
b000111000 +
#241
0(
#242
b01101111 #
b01110100 '
1(
b001111001 *
b000111001 +
#243
0(
#244
b01101101 #
b01110111 '
1(
b001111010 *
b000111010 +
#245
0(
#246
b01101011 #
b01111010 '
1(
b001111011 *
b000111011 +
#247
0(
#248
b01101010 #
b01111100 '
1(
b001111100 *
b000111100 +
#249
0(
#250
b01101000 #
b01111011 '
1(
b001111101 *
b000111101 +
#251
0(
#252
b01101010 #
b01111101 '
1(
b001111110 *
b000111110 +
#253
0(
#254
b01100110 #
b01111011 '
1(
b001111111 *
b000111111 +
#255
0(
#256
b01100111 #
b01111000 '
1(
b010000000 *
b001000000 +
#257
0(
#258
b01101000 #
b01110100 '
1(
b010000001 *
b001000001 +
#259
0(
#260
1(
b010000010 *
b001000010 +
#261
0(
#262
b01101010 #
b01110000 '
1(
b010000011 *
b001000011 +
#263
0(
#264
b01101001 #
b01101100 '
1(
b010000100 *
b001000100 +
#265
0(
#266
b01101101 #
1(
b010000101 *
b001000101 +
#267
0(
#268
b01101110 #
b01101010 '
1(
b010000110 *
b001000110 +
#269
0(
#270
b01101100 #
b01101001 '
1(
b010000111 *
b001000111 +
#271
0(
#272
b01101110 #
1(
b010001000 *
b001001000 +
#273
0(
#274
b01101010 #
b01100111 '
1(
b010001001 *
b001001001 +
#275
0(
#276
b01101011 #
b01100110 '
1(
b010001010 *
b001001010 +
#277
0(
#278
b01101000 #
b01101001 '
1(
b010001011 *
b001001011 +
#279
0(
#280
b01100110 #
1(
b010001100 *
b001001100 +
#281
0(
#282
b01100111 #
b01101100 '
1(
b010001101 *
b001001101 +
#283
0(
#284
b01100100 #
b01101101 '
1(
b010001110 *
b001001110 +
#285
0(
#286
b01100011 #
1(
b010001111 *
b001001111 +
#287
0(
#288
b01011110 #
b01101110 '
1(
b010010000 *
b001010000 +
#289
0(
#290
b01011111 #
b01101111 '
1(
b010010001 *
b001010001 +
#291
0(
#292
b01011101 #
1(
b010010010 *
b001010010 +
#293
0(
#294
b01100000 #
b01101101 '
1(
b010010011 *
b001010011 +
#295
0(
#296
b01011110 #
b01101011 '
1(
b010010100 *
b001010100 +
#297
0(
#298
b01011101 #
b01101000 '
1(
b010010101 *
b001010101 +
#299
0(
#300
b01011110 #
b01101010 '
1(
b010010110 *
b001010110 +
#301
0(
#302
b01100000 #
b01101011 '
1(
b010010111 *
b001010111 +
#303
0(
#304
b01100011 #
b01101010 '
1(
b010011000 *
b001011000 +
#305
0(
#306
b01101001 #
b01101001 '
1(
b010011001 *
b001011001 +
#307
0(
#308
b01101010 #
b01101000 '
1(
b010011010 *
b001011010 +
#309
0(
#310
b01101101 #
b01100101 '
1(
b010011011 *
b001011011 +
#311
0(
#312
b01101100 #
1(
b010011100 *
b001011100 +
#313
0(
#314
b01101101 #
1(
b010011101 *
b001011101 +
#315
0(
#316
b01100000 '
1(
b010011110 *
b001011110 +
#317
0(
#318
b01101001 #
b01100011 '
1(
b010011111 *
b001011111 +
#319
0(
#320
b01101000 #
b01100111 '
1(
b010100000 *
b001100000 +
#321
0(
#322
b01101011 '
1(
b010100001 *
b001100001 +
#323
0(
#324
b01100110 #
b01101101 '
1(
b010100010 *
b001100010 +
#325
0(
#326
b01100011 #
b01101110 '
1(
b010100011 *
b001100011 +
#327
0(
#328
1(
b010100100 *
b001100100 +
#329
0(
#330
b01110100 '
1(
b010100101 *
b001100101 +
#331
0(
#332
b01101111 '
1(
b010100110 *
b001100110 +
#333
0(
#334
b01100110 #
b01110000 '
1(
b010100111 *
b001100111 +
#335
0(
#336
b01101000 #
b01101111 '
1(
b010101000 *
b001101000 +
#337
0(
#338
b01101011 #
b01101110 '
1(
b010101001 *
b001101001 +
#339
0(
#340
b01101100 #
1(
b010101010 *
b001101010 +
#341
0(
#342
b01110001 #
b01101011 '
1(
b010101011 *
b001101011 +
#343
0(
#344
b01100110 '
1(
b010101100 *
b001101100 +
#345
0(
#346
1(
b010101101 *
b001101101 +
#347
0(
#348
b01110000 #
b01101101 '
1(
b010101110 *
b001101110 +
#349
0(
#350
b01110001 #
b01101010 '
1(
b010101111 *
b001101111 +
#351
0(
#352
b01110000 #
b01101111 '
1(
b010110000 *
b001110000 +
#353
0(
#354
b01101100 #
1(
b010110001 *
b001110001 +
#355
0(
#356
b01101001 #
b01110010 '
1(
b010110010 *
b001110010 +
#357
0(
#358
b01101000 #
b01110110 '
1(
b010110011 *
b001110011 +
#359
0(
#360
b01100111 #
b01110010 '
1(
b010110100 *
b001110100 +
#361
0(
#362
b01100101 #
b01110000 '
1(
b010110101 *
b001110101 +
#363
0(
#364
b01100111 #
b01110100 '
1(
b010110110 *
b001110110 +
#365
0(
#366
b01100110 #
b01110110 '
1(
b010110111 *
b001110111 +
#367
0(
#368
b01110100 '
1(
b010111000 *
b001111000 +
#369
0(
#370
b01101001 #
b01110001 '
1(
b010111001 *
b001111001 +
#371
0(
#372
b01101010 #
b01101111 '
1(
b010111010 *
b001111010 +
#373
0(
#374
b01101100 #
b01101101 '
1(
b010111011 *
b001111011 +
#375
0(
#376
b01101101 #
b01101011 '
1(
b010111100 *
b001111100 +
#377
0(
#378
b01101111 #
b01101010 '
1(
b010111101 *
b001111101 +
#379
0(
#380
b01101000 '
1(
b010111110 *
b001111110 +
#381
0(
#382
b01101110 #
b01101010 '
1(
b010111111 *
b001111111 +
#383
0(
#384
b01100110 '
1(
b011000000 *
b010000000 +
#385
0(
#386
b01101100 #
b01100111 '
1(
b011000001 *
b010000001 +
#387
0(
#388
b01101010 #
b01101000 '
1(
b011000010 *
b010000010 +
#389
0(
#390
b01101001 #
1(
b011000011 *
b010000011 +
#391
0(
#392
b01101000 #
b01101010 '
1(
b011000100 *
b010000100 +
#393
0(
#394
b01100110 #
b01101001 '
1(
b011000101 *
b010000101 +
#395
0(
#396
b01100011 #
b01101101 '
1(
b011000110 *
b010000110 +
#397
0(
#398
b01100100 #
b01101110 '
1(
b011000111 *
b010000111 +
#399
0(
#400
b01100010 #
b01101100 '
1(
b011001000 *
b010001000 +
#401
0(
#402
b01101110 '
1(
b011001001 *
b010001001 +
#403
0(
#404
b01011111 #
b01101010 '
1(
b011001010 *
b010001010 +
#405
0(
#406
b01100011 #
b01101011 '
1(
b011001011 *
b010001011 +
#407
0(
#408
b01100101 #
b01101000 '
1(
b011001100 *
b010001100 +
#409
0(
#410
b01100110 #
b01100110 '
1(
b011001101 *
b010001101 +
#411
0(
#412
b01100100 #
b01100111 '
1(
b011001110 *
b010001110 +
#413
0(
#414
b01100110 #
b01100100 '
1(
b011001111 *
b010001111 +
#415
0(
#416
b01101000 #
b01100011 '
1(
b011010000 *
b010010000 +
#417
0(
#418
b01101100 #
b01011110 '
1(
b011010001 *
b010010001 +
#419
0(
#420
b01110000 #
b01011111 '
1(
b011010010 *
b010010010 +
#421
0(
#422
b01101111 #
b01011101 '
1(
b011010011 *
b010010011 +
#423
0(
#424
b01110000 #
b01100000 '
1(
b011010100 *
b010010100 +
#425
0(
#426
b01011110 '
1(
b011010101 *
b010010101 +
#427
0(
#428
b01101110 #
b01011101 '
1(
b011010110 *
b010010110 +
#429
0(
#430
b01110000 #
b01011110 '
1(
b011010111 *
b010010111 +
#431
0(
#432
b01101111 #
b01100000 '
1(
b011011000 *
b010011000 +
#433
0(
#434
b01101100 #
b01100011 '
1(
b011011001 *
b010011001 +
#435
0(
#436
b01101110 #
b01101001 '
1(
b011011010 *
b010011010 +
#437
0(
#438
b01101101 #
b01101010 '
1(
b011011011 *
b010011011 +
#439
0(
#440
b01101100 #
b01101101 '
1(
b011011100 *
b010011100 +
#441
0(
#442
b01101101 #
b01101100 '
1(
b011011101 *
b010011101 +
#443
0(
#444
b01101101 '
1(
b011011110 *
b010011110 +
#445
0(
#446
b01110001 #
1(
b011011111 *
b010011111 +
#447
0(
#448
b01110100 #
b01101001 '
1(
b011100000 *
b010100000 +
#449
0(
#450
b01101000 '
1(
b011100001 *
b010100001 +
#451
0(
#452
b01110111 #
1(
b011100010 *
b010100010 +
#453
0(
#454
b01110101 #
b01100110 '
1(
b011100011 *
b010100011 +
#455
0(
#456
b01110110 #
b01100011 '
1(
b011100100 *
b010100100 +
#457
0(
#458
b01110101 #
1(
b011100101 *
b010100101 +
#459
0(
#460
1(
b011100110 *
b010100110 +
#461
0(
#462
b01110010 #
1(
b011100111 *
b010100111 +
#463
0(
#464
b01101111 #
b01100110 '
1(
b011101000 *
b010101000 +
#465
0(
#466
b01101101 #
b01101000 '
1(
b011101001 *
b010101001 +
#467
0(
#468
b01101100 #
b01101011 '
1(
b011101010 *
b010101010 +
#469
0(
#470
b01101001 #
b01101100 '
1(
b011101011 *
b010101011 +
#471
0(
#472
b01100110 #
b01110001 '
1(
b011101100 *
b010101100 +
#473
0(
#474
b01100101 #
1(
b011101101 *
b010101101 +
#475
0(
#476
1(
b011101110 *
b010101110 +
#477
0(
#478
b01100110 #
b01110000 '
1(
b011101111 *
b010101111 +
#479
0(
#480
b01101010 #
b01110001 '
1(
b011110000 *
b010110000 +
#481
0(
#482
b01101011 #
b01110000 '
1(
b011110001 *
b010110001 +
#483
0(
#484
b01101111 #
b01101100 '
1(
b011110010 *
b010110010 +
#485
0(
#486
b01101001 '
1(
b011110011 *
b010110011 +
#487
0(
#488
b01101101 #
b01101000 '
1(
b011110100 *
b010110100 +
#489
0(
#490
b01110010 #
b01100111 '
1(
b011110101 *
b010110101 +
#491
0(
#492
b01101101 #
b01100101 '
1(
b011110110 *
b010110110 +
#493
0(
#494
b01100111 '
1(
b011110111 *
b010110111 +
#495
0(
#496
b01101100 #
b01100110 '
1(
b011111000 *
b010111000 +
#497
0(
#498
1(
b011111001 *
b010111001 +
#499
0(
#500
b01101001 '
1(
b011111010 *
b010111010 +
#501
0(
#502
b01101000 #
b01101010 '
1(
b011111011 *
b010111011 +
#503
0(
#504
b01101001 #
b01101100 '
1(
b011111100 *
b010111100 +
#505
0(
#506
b01100111 #
b01101101 '
1(
b011111101 *
b010111101 +
#507
0(
#508
b01100011 #
b01101111 '
1(
b011111110 *
b010111110 +
#509
0(
#510
1(
b011111111 *
b010111111 +
#511
0(
#512
b01100101 #
b01101110 '
1(
b100000000 *
b011000000 +
#513
0(
#514
b01100100 #
1(
b100000001 *
b011000001 +
#515
0(
#516
b01100010 #
b01101100 '
1(
b100000010 *
b011000010 +
#517
0(
#518
b01100100 #
b01101010 '
1(
b100000011 *
b011000011 +
#519
0(
#520
b01100001 #
b01101001 '
1(
b100000100 *
b011000100 +
#521
0(
#522
b01100010 #
b01101000 '
1(
b100000101 *
b011000101 +
#523
0(
#524
b01100101 #
b01100110 '
1(
b100000110 *
b011000110 +
#525
0(
#526
b01101001 #
b01100011 '
1(
b100000111 *
b011000111 +
#527
0(
#528
b01101010 #
b01100100 '
1(
b100001000 *
b011001000 +
#529
0(
#530
b01101110 #
b01100010 '
1(
b100001001 *
b011001001 +
#531
0(
#532
b01110010 #
1(
b100001010 *
b011001010 +
#533
0(
#534
b01110011 #
b01011111 '
1(
b100001011 *
b011001011 +
#535
0(
#536
b01100011 '
1(
b100001100 *
b011001100 +
#537
0(
#538
b01110100 #
b01100101 '
1(
b100001101 *
b011001101 +
#539
0(
#540
b01110101 #
b01100110 '
1(
b100001110 *
b011001110 +
#541
0(
#542
b01110011 #
b01100100 '
1(
b100001111 *
b011001111 +
#543
0(
#544
b01110010 #
b01100110 '
1(
b100010000 *
b011010000 +
#545
0(
#546
b01110001 #
b01101000 '
1(
b100010001 *
b011010001 +
#547
0(
#548
b01101110 #
b01101100 '
1(
b100010010 *
b011010010 +
#549
0(
#550
b01110000 #
b01110000 '
1(
b100010011 *
b011010011 +
#551
0(
#552
b01110001 #
b01101111 '
1(
b100010100 *
b011010100 +
#553
0(
#554
b01110100 #
b01110000 '
1(
b100010101 *
b011010101 +
#555
0(
#556
b01110010 #
1(
b100010110 *
b011010110 +
#557
0(
#558
b01110110 #
b01101110 '
1(
b100010111 *
b011010111 +
#559
0(
#560
b01110111 #
b01110000 '
1(
b100011000 *
b011011000 +
#561
0(
#562
b01101111 '
1(
b100011001 *
b011011001 +
#563
0(
#564
b01101100 '
1(
b100011010 *
b011011010 +
#565
0(
#566
b01111000 #
b01101110 '
1(
b100011011 *
b011011011 +
#567
0(
#568
b01110110 #
b01101101 '
1(
b100011100 *
b011011100 +
#569
0(
#570
b01110010 #
b01101100 '
1(
b100011101 *
b011011101 +
#571
0(
#572
b01110110 #
b01101101 '
1(
b100011110 *
b011011110 +
#573
0(
#574
b01110101 #
1(
b100011111 *
b011011111 +
#575
0(
#576
b01110001 '
1(
b100100000 *
b011100000 +
#577
0(
#578
b01110100 #
b01110100 '
1(
b100100001 *
b011100001 +
#579
0(
#580
b01101101 #
1(
b100100010 *
b011100010 +
#581
0(
#582
b01110001 #
b01110111 '
1(
b100100011 *
b011100011 +
#583
0(
#584
b01101101 #
b01110101 '
1(
b100100100 *
b011100100 +
#585
0(
#586
b01101110 #
b01110110 '
1(
b100100101 *
b011100101 +
#587
0(
#588
b01110101 '
1(
b100100110 *
b011100110 +
#589
0(
#590
b01101111 #
1(
b100100111 *
b011100111 +
#591
0(
#592
b01101011 #
b01110010 '
1(
b100101000 *
b011101000 +
#593
0(
#594
b01101100 #
b01101111 '
1(
b100101001 *
b011101001 +
#595
0(
#596
b01101011 #
b01101101 '
1(
b100101010 *
b011101010 +
#597
0(
#598
b01101100 '
1(
b100101011 *
b011101011 +
#599
0(
#600
b01101010 #
b01101001 '
1(
b100101100 *
b011101100 +
#601
0(
#602
b01101001 #
b01100110 '
1(
b100101101 *
b011101101 +
#603
0(
#604
b01101000 #
b01100101 '
1(
b100101110 *
b011101110 +
#605
0(
#606
1(
b100101111 *
b011101111 +
#607
0(
#608
b01100111 #
b01100110 '
1(
b100110000 *
b011110000 +
#609
0(
#610
b01101000 #
b01101010 '
1(
b100110001 *
b011110001 +
#611
0(
#612
b01101011 '
1(
b100110010 *
b011110010 +
#613
0(
#614
b01101001 #
b01101111 '
1(
b100110011 *
b011110011 +
#615
0(
#616
b01100111 #
1(
b100110100 *
b011110100 +
#617
0(
#618
b01101010 #
b01101101 '
1(
b100110101 *
b011110101 +
#619
0(
#620
b01110010 '
1(
b100110110 *
b011110110 +
#621
0(
#622
b01101000 #
b01101101 '
1(
b100110111 *
b011110111 +
#623
0(
#624
b01101001 #
1(
b100111000 *
b011111000 +
#625
0(
#626
b01100101 #
b01101100 '
1(
b100111001 *
b011111001 +
#627
0(
#628
b01100111 #
1(
b100111010 *
b011111010 +
#629
0(
#630
b01101001 #
1(
b100111011 *
b011111011 +
#631
0(
#632
b01101000 #
b01101000 '
1(
b100111100 *
b011111100 +
#633
0(
#634
b01101001 #
b01101001 '
1(
b100111101 *
b011111101 +
#635
0(
#636
b01100110 #
b01100111 '
1(
b100111110 *
b011111110 +
#637
0(
#638
b01100101 #
b01100011 '
1(
b100111111 *
b011111111 +
#639
0(
#640
b01100100 #
1(
b101000000 *
b100000000 +
#641
0(
#642
b01101001 #
b01100101 '
1(
b101000001 *
b100000001 +
#643
0(
#644
b01100100 '
1(
b101000010 *
b100000010 +
#645
0(
#646
b01101101 #
b01100010 '
1(
b101000011 *
b100000011 +
#647
0(
#648
b01100100 '
1(
b101000100 *
b100000100 +
#649
0(
#650
b01101111 #
b01100001 '
1(
b101000101 *
b100000101 +
#651
0(
#652
b01110010 #
b01100010 '
1(
b101000110 *
b100000110 +
#653
0(
#654
b01101111 #
b01100101 '
1(
b101000111 *
b100000111 +
#655
0(
#656
b01110000 #
b01101001 '
1(
b101001000 *
b100001000 +
#657
0(
#658
b01101110 #
b01101010 '
1(
b101001001 *
b100001001 +
#659
0(
#660
b01110001 #
b01101110 '
1(
b101001010 *
b100001010 +
#661
0(
#662
b01110010 '
1(
b101001011 *
b100001011 +
#663
0(
#664
b01110000 #
b01110011 '
1(
b101001100 *
b100001100 +
#665
0(
#666
b01101111 #
1(
b101001101 *
b100001101 +
#667
0(
#668
b01101110 #
b01110100 '
1(
b101001110 *
b100001110 +
#669
0(
#670
b01110101 '
1(
b101001111 *
b100001111 +
#671
0(
#672
b01101111 #
b01110011 '
1(
b101010000 *
b100010000 +
#673
0(
#674
b01101110 #
b01110010 '
1(
b101010001 *
b100010001 +
#675
0(
#676
b01110001 #
b01110001 '
1(
b101010010 *
b100010010 +
#677
0(
#678
b01110010 #
b01101110 '
1(
b101010011 *
b100010011 +
#679
0(
#680
b01110011 #
b01110000 '
1(
b101010100 *
b100010100 +
#681
0(
#682
b01110100 #
b01110001 '
1(
b101010101 *
b100010101 +
#683
0(
#684
b01110100 '
1(
b101010110 *
b100010110 +
#685
0(
#686
b01110010 #
b01110010 '
1(
b101010111 *
b100010111 +
#687
0(
#688
b01110011 #
b01110110 '
1(
b101011000 *
b100011000 +
#689
0(
#690
b01110010 #
b01110111 '
1(
b101011001 *
b100011001 +
#691
0(
#692
b01110001 #
1(
b101011010 *
b100011010 +
#693
0(
#694
b01110000 #
1(
b101011011 *
b100011011 +
#695
0(
#696
b01101011 #
b01111000 '
1(
b101011100 *
b100011100 +
#697
0(
#698
b01101010 #
b01110110 '
1(
b101011101 *
b100011101 +
#699
0(
#700
b01100111 #
b01110010 '
1(
b101011110 *
b100011110 +
#701
0(
#702
b01110110 '
1(
b101011111 *
b100011111 +
#703
0(
#704
b01101001 #
b01110101 '
1(
b101100000 *
b100100000 +
#705
0(
#706
b01101100 #
1(
b101100001 *
b100100001 +
#707
0(
#708
b01110100 '
1(
b101100010 *
b100100010 +
#709
0(
#710
b01101101 #
b01101101 '
1(
b101100011 *
b100100011 +
#711
0(
#712
b01101100 #
b01110001 '
1(
b101100100 *
b100100100 +
#713
0(
#714
b01101101 #
b01101101 '
1(
b101100101 *
b100100101 +
#715
0(
#716
b01101100 #
b01101110 '
1(
b101100110 *
b100100110 +
#717
0(
#718
1(
b101100111 *
b100100111 +
#719
0(
#720
b01101110 #
b01101111 '
1(
b101101000 *
b100101000 +
#721
0(
#722
b01101001 #
b01101011 '
1(
b101101001 *
b100101001 +
#723
0(
#724
b01101011 #
b01101100 '
1(
b101101010 *
b100101010 +
#725
0(
#726
b01101010 #
b01101011 '
1(
b101101011 *
b100101011 +
#727
0(
#728
b01100111 #
1(
b101101100 *
b100101100 +
#729
0(
#730
b01101000 #
b01101010 '
1(
b101101101 *
b100101101 +
#731
0(
#732
b01100100 #
b01101001 '
1(
b101101110 *
b100101110 +
#733
0(
#734
b01101000 '
1(
b101101111 *
b100101111 +
#735
0(
#736
1(
b101110000 *
b100110000 +
#737
0(
#738
b01100111 '
1(
b101110001 *
b100110001 +
#739
0(
#740
b01100110 #
b01101000 '
1(
b101110010 *
b100110010 +
#741
0(
#742
b01100101 #
1(
b101110011 *
b100110011 +
#743
0(
#744
b01101001 '
1(
b101110100 *
b100110100 +
#745
0(
#746
b01100111 '
1(
b101110101 *
b100110101 +
#747
0(
#748
b01101010 #
b01101010 '
1(
b101110110 *
b100110110 +
#749
0(
#750
b01101001 #
1(
b101110111 *
b100110111 +
#751
0(
#752
b01101010 #
b01101000 '
1(
b101111000 *
b100111000 +
#753
0(
#754
b01101101 #
b01101001 '
1(
b101111001 *
b100111001 +
#755
0(
#756
b01110000 #
b01100101 '
1(
b101111010 *
b100111010 +
#757
0(
#758
b01100111 '
1(
b101111011 *
b100111011 +
#759
0(
#760
b01110011 #
b01101001 '
1(
b101111100 *
b100111100 +
#761
0(
#762
b01101000 '
1(
b101111101 *
b100111101 +
#763
0(
#764
b01110010 #
b01101001 '
1(
b101111110 *
b100111110 +
#765
0(
#766
b01110100 #
b01100110 '
1(
b101111111 *
b100111111 +
#767
0(
#768
b01110010 #
b01100101 '
1(
b110000000 *
b101000000 +
#769
0(
#770
b01110011 #
b01100100 '
1(
b110000001 *
b101000001 +
#771
0(
#772
b01110000 #
b01101001 '
1(
b110000010 *
b101000010 +
#773
0(
#774
b01101110 #
1(
b110000011 *
b101000011 +
#775
0(
#776
b01101100 #
b01101101 '
1(
b110000100 *
b101000100 +
#777
0(
#778
b01101011 #
1(
b110000101 *
b101000101 +
#779
0(
#780
b01101010 #
b01101111 '
1(
b110000110 *
b101000110 +
#781
0(
